John Doe

Bob Bobert

Jane Smith

John Doe
Jane Smith
Glenn Downing

Bob Bobert
Charlie Charleson

Marilyn Monroe
Moaning Myrtle

budge
Sinology
Kong
arcsine
dishwasher

Carmichael

Syria
synchrony

Barnes

bacteria musky

palliate voyage

veto victory

Yeet

mo?
