John Doe

Rinat Cecilia

Anish Petros

Sanjay Myung

Rinat Cecilia

Fearghas Neilos

Rinat Cecilia

Anish Petros
Birgit Jennie

Anish Petros

Anish Petros

Aditya Leonard
Christine Anthony

Aditya Leonard
